<?xml version="1.0" encoding="UTF-8"?>
<session version="1.0">
<refactoring comment="Delete resource &apos;WorkSpace2&apos;" deleteContents="false" description="Delete resource &apos;WorkSpace2&apos;" element1="/WorkSpace2" flags="7" id="org.eclipse.ltk.core.refactoring.delete.resources" resources="1" stamp="1704268046670"/>
</session>